{
  "archive": [
    "archive.gz",
    "c9292d5a7d038a9ca4294f146d850ef9",
    "http://index.spacy.io/models/reddit_vectors-1.1.0/archive.gz"
  ],
  "etag": "c65a9cabeb0e02d961c2823f2d05aa1c",
  "manifest": [
    {
      "checksum": [
        "md5",
        "192e6734cad5adae9f8636b1c4c00476"
      ],
      "noffset": 11304276,
      "path": [
        "freqs.json"
      ],
      "size": 31884821
    },
    {
      "checksum": [
        "md5",
        "7b2c42f1f35ce9ae58adb28b7d7b8df4"
      ],
      "noffset": 579707018,
      "path": [
        "vectors.bin"
      ],
      "size": 611973640
    },
    {
      "checksum": [
        "md5",
        "0d91c0c2b9283d29b73d0ffe183d72e2"
      ],
      "noffset": 588148919,
      "path": [
        "strings.json"
      ],
      "size": 22778623
    }
  ],
  "package": {
    "compatibility": {
      "sense2vec": null
    },
    "description": "reddit comments sense2vec model",
    "license": "public domain",
    "name": "reddit_vectors",
    "version": "1.1.0"
  }
}